{
  "$schema": "https://docs.renovatebot.com/renovate-schema.json",
  "description": "Default config when user don't specify a preset",

  "extends": [
    "gitlab>vmeurisse/renovate-config//presets/full/default.json5"
  ]
}
