{
  "$schema": "https://docs.renovatebot.com/renovate-schema.json",
  description: "Configuration for the python based linters",
  packageRules: [
    // Group all upgrades of python in a single PR
    {
      extends: "gitlab>vmeurisse/renovate-config//presets/packages/python-linters.json5",
      groupName: "python linters",
    },
    // Automerge MR
    {
      extends: "gitlab>vmeurisse/renovate-config//presets/packages/python-linters.json5",
      matchDepTypes: ["devDependencies"],
      matchUpdateTypes: ["minor", "patch"],
      prBodyNotes: ["Automerge candidate."],
      // "automerge": true
    }
  ],
}
