{
  "$schema": "https://docs.renovatebot.com/renovate-schema.json",
  description: "Configuration for the dependency on python",
  packageRules: [
    {
      extends: "gitlab>vmeurisse/renovate-config//presets/packages/renovate.json5",
      groupName: "renovate",
    },
    {
      extends: "gitlab>vmeurisse/renovate-config//presets/packages/renovate.json5",
      matchUpdateTypes: ["minor", "patch", "pin", "digest"],
      prBodyNotes: ["Automerge candidate."],
      // "automerge": true
    }
  ],
}
